Grading at 09/30/2021:17:45:35.202718
For commit ID 86d6ddbb3e3a225c000efcb1d00bcd440008fe62
Grading at Thu Sep 30 13:45:31 EDT 2021
Attempting to compile:
#################################################
testcase1:
Your output is correct
  - Valgrind was clean (no errors, no memory leaks)
valgrind was clean
#################################################
testcase2:
Your output is correct
  - Valgrind was clean (no errors, no memory leaks)
valgrind was clean
#################################################
testcase3:
Your output is correct
  - Valgrind was clean (no errors, no memory leaks)
valgrind was clean

Overall Grade: A
