Grading at 08/24/2021:04:40:17.754405
For commit ID a46d30535e7bc0d8acb17c489719576cf8f48cd3
Grading at Tue Aug 24 00:40:17 EDT 2021
Reading your quiz answers from answers.txt
Your quiz answers are correct

Overall Grade: PASSED
