Grading at 08/24/2021:18:45:35.976373
For commit ID 0fad2d8a5e6d7dc63583c14eb9fcd0ad9a4709cf
Grading at Tue Aug 24 14:45:35 EDT 2021
Reading your quiz answers from answers.txt
Your quiz answers are correct

Overall Grade: PASSED
