Grading at 09/15/2021:04:35:46.356577
For commit ID 89ad0e9b793322fe8315c42985f7a99fcb79e608
Grading at Wed Sep 15 00:35:45 EDT 2021
**Testing broken implementation 10 **
-------------------------------------


**Testing broken implementation 11 **
-------------------------------------


**Testing broken implementation 1 **
-------------------------------------


**Testing broken implementation 2 **
-------------------------------------


**Testing broken implementation 3 **
-------------------------------------


**Testing broken implementation 4 **
-------------------------------------


**Testing broken implementation 5 **
-------------------------------------


**Testing broken implementation 6 **
-------------------------------------


**Testing broken implementation 7 **
-------------------------------------


**Testing broken implementation 8 **
-------------------------------------


**Testing broken implementation 9 **
-------------------------------------


**Testing correct implementation **
-------------------------------------


All test programs were handled correctly

Overall Grade: PASSED
