Grading at 10/06/2021:23:13:05.876404
For commit ID 260765fef8b7a5f2ce83194bbd3209b6bdc03267
Grading at Wed Oct  6 19:13:01 EDT 2021
Attempting to compile:
#################################################
testcase1:
Your output is correct
  - Valgrind was clean (no errors, no memory leaks)
valgrind was clean
#################################################
testcase2:
Your output is correct
  - Valgrind was clean (no errors, no memory leaks)
valgrind was clean
#################################################
testcase3:
Your output is correct
  - Valgrind was clean (no errors, no memory leaks)
valgrind was clean

Overall Grade: A
