Grading at 10/17/2021:21:40:09.148261
For commit ID 071d9b3ae908449475a5069d154ccbbb06cc32e1
Grading at Sun Oct 17 17:40:01 EDT 2021
Attempting to compile:
rm -f *.o  *~ intArrayTest
#################################################
testcase1:
Your output is correct
  - Valgrind was clean (no errors, no memory leaks)
valgrind was clean
#################################################
testcase2:
Your output is correct
  - Valgrind was clean (no errors, no memory leaks)
valgrind was clean
#################################################
testcase3:
Your output is correct
  - Valgrind was clean (no errors, no memory leaks)
valgrind was clean
#################################################
testcase4:
Your output is correct
  - Valgrind was clean (no errors, no memory leaks)
valgrind was clean

Overall Grade: A
