Grading at 09/15/2021:02:26:50.496457
For commit ID d91dd291b9d295409eafa3922d1619a2585fb514
Grading at Tue Sep 14 22:26:50 EDT 2021
Reading your quiz answers from answers.txt
Your quiz answers are correct

Overall Grade: PASSED
