Grading at 10/20/2021:02:09:19.950012
For commit ID 3e9ae27b2de260fd62b17d575efa8406984dc6a9
Grading at Tue Oct 19 22:09:19 EDT 2021
Reading your quiz answers from answers.txt
Your quiz answers are correct

Overall Grade: PASSED
