Grading at 09/21/2021:04:22:00.549955
For commit ID e2a0f78a5ee6e14836cb470869e51ccd0cc4e5bc
Grading at Tue Sep 21 00:22:00 EDT 2021
Your file matched the expected output
Your output matched what we expected

Overall Grade: A
