Grading at 11/22/2021:05:14:15.634172
For commit ID c72147171f51871ea3dcdad9f8e117dbaa885516
Grading at Mon Nov 22 00:14:15 EST 2021
Reading your quiz answers from answers.txt
Your quiz answers are correct

Overall Grade: PASSED
