Grading at 11/09/2021:19:57:59.176345
For commit ID b4ed4a1ba3e8b3e301779b7662c2eae7e46f44ed
Grading at Tue Nov  9 14:57:57 EST 2021
**Testing broken implementation 1 **
-------------------------------------


**Testing broken implementation 2 **
-------------------------------------


**Testing broken implementation 3 **
-------------------------------------


**Testing broken implementation 4 **
-------------------------------------


**Testing broken implementation 5 **
-------------------------------------


**Testing broken implementation 6 **
-------------------------------------


**Testing broken implementation 7 **
-------------------------------------


**Testing broken implementation 8 **
-------------------------------------


**Testing correct implementation **
-------------------------------------


Your tests identified the problems with all broken programs

Overall Grade: PASSED
